# ulysses16.tsp.tsv
# converted from original file: ulysses16.tsp
# DIMENSION : 16
#city1	city2	distance
0	1	5.8823
0	2	5.4215
0	3	3.3482
0	4	10.9669
0	5	8.2580
0	6	7.3122
0	7	0.7203
0	8	11.7082
0	9	7.9311
0	10	25.7209
0	11	5.2950
0	12	5.0708
0	13	5.3005
0	14	6.6912
0	15	1.4121
1	2	1.2919
1	3	4.4874
1	4	16.7559
1	5	14.1040
1	6	13.0906
1	7	6.0668
1	8	17.1306
1	9	13.1973
1	10	31.5536
1	11	11.0748
1	12	10.8930
1	13	11.1716
1	14	12.5138
1	15	6.5933
2	3	4.8301
2	4	16.3883
2	5	13.4684
2	6	12.3961
2	7	5.7494
2	8	16.2338
2	9	12.2852
2	10	30.8569
2	11	10.4021
2	12	10.2571
2	13	10.5983
2	14	12.1122
2	15	5.8837
3	4	12.8835
3	5	11.0070
3	6	10.2404
3	7	2.9614
3	8	14.8749
3	9	11.2033
3	10	28.3306
3	11	8.2900
3	12	7.9966
3	13	8.0477
3	14	8.8336
3	15	4.7206
4	5	4.4010
4	6	5.5685
4	7	10.6926
4	8	7.8826
4	9	8.0893
4	10	15.9632
4	11	6.7800
4	12	6.7041
4	13	6.1382
4	14	4.2812
4	15	10.7673
5	6	1.2594
5	7	8.2501
5	8	4.7976
5	9	3.7110
5	10	17.4628
5	11	3.0776
5	12	3.2146
5	13	2.9804
5	14	2.9702
5	15	7.5866
6	7	7.3850
6	8	4.8965
6	9	2.7507
6	10	18.4688
6	11	2.0206
6	12	2.2562
6	13	2.2520
6	14	3.1700
6	15	6.5181
7	8	11.9315
7	9	8.2422
7	10	25.6904
7	11	5.3943
7	12	5.1288
7	13	5.2700
7	14	6.4479
7	15	2.0396
8	9	3.9505
8	10	15.2085
8	11	6.6316
8	12	6.9677
8	13	7.1192
8	14	7.7586
8	15	10.6258
9	10	18.9562
9	11	3.4083
9	12	3.7961
9	13	4.2297
9	14	5.8202
9	15	6.7569
10	11	20.4799
10	12	20.6639
10	13	20.4301
10	14	19.5389
10	15	24.9862
11	12	0.3883
11	13	0.9608
11	14	3.0881
11	15	4.5185
12	13	0.6648
12	14	2.8525
12	15	4.3804
13	14	2.1916
13	15	4.7639
14	15	6.5142
