\textbf{graph}	\textbf{s}	\textbf{m}	$T_{pinit}$	$T_{init}$	$T_1$	$\frac{s*T_{travel}}{m}$	$T_2$	$log(m) * T_{update}$	$T_3$	$T_{update}$	$T_{pfin}$	$T_{fin}$	$T_{ptotal}$	$\frac{T_{total}}{m}$	\textbf{speedup}
kroA200	64	1	0.045867	0.0461098	0.320209	0.321882	1.48781e-06	0	0.000747179	0.000771443	0.00104056	0.000855855	32.1426	32.3123	1.00528
kroA200	64	2	0.0460708	0.0461098	0.159691	0.160941	0.000784682	0.000771443	0.000745406	0.000771443	0.00106259	0.000855855	16.1693	16.1562	1.99838
kroA200	64	4	0.0474158	0.0461098	0.081892	0.0804706	0.0014768	0.00154289	0.000752625	0.000771443	0.00100612	0.000855855	8.46056	8.07809	3.81917
kroA200	64	8	0.0502336	0.0461098	0.0503481	0.0402353	0.00123933	0.00231433	0.000840937	0.000771443	0.00103309	0.000855855	5.2941	4.03904	6.10346
kroA200	64	16	0.053145	0.0461098	0.0268205	0.0201176	0.0014509	0.00308577	0.000855188	0.000771443	0.00100811	0.000855855	2.96681	2.01952	10.8913
kroA200	64	24	0.0621681	0.0461098	0.0195409	0.0134118	0.00183231	0.00353704	0.000763708	0.000771443	0.00103578	0.000855855	2.2769	1.34635	14.1914
kroA200	64	32	0.0691926	0.0461098	0.0154198	0.0100588	0.00223493	0.00385722	0.000769217	0.000771443	0.00100525	0.000855855	1.91259	1.00976	16.8945
kroA200	256	1	0.0459526	0.0464479	1.29157	1.29768	1.51855e-06	0	0.000747932	0.000772675	0.00115705	0.000860185	129.279	129.892	1.00474
kroA200	256	2	0.04676	0.0464479	0.655547	0.648838	0.000794588	0.000772675	0.000758887	0.000772675	0.00193621	0.000860185	65.7587	64.946	1.97528
kroA200	256	4	0.048282	0.0464479	0.322282	0.324419	0.00143713	0.00154535	0.000751048	0.000772675	0.00111919	0.000860185	32.4964	32.473	3.99712
kroA200	256	8	0.0492121	0.0464479	0.161429	0.162209	0.00229254	0.00231802	0.000749221	0.000772675	0.00104213	0.000860185	16.4974	16.2365	7.87351
kroA200	256	16	0.0549187	0.0464479	0.0838011	0.0811047	0.00261096	0.0030907	0.000761008	0.000772675	0.00104422	0.000860185	8.77327	8.11826	14.8054
kroA200	256	24	0.0576102	0.0464479	0.067457	0.0540698	0.00141837	0.00354268	0.000815799	0.000772675	0.00101488	0.000860185	7.02774	5.41217	18.4828
kroA200	256	32	0.0661634	0.0464479	0.0538819	0.0405523	0.00170692	0.00386337	0.000783137	0.000772675	0.00102593	0.000860185	5.70438	4.05913	22.7706
kroA200	2048	1	0.0459547	0.0462834	10.7389	10.8266	1.60563e-06	0	0.000745185	0.000771789	0.00124171	0.00089651	1074.01	1082.79	1.00817
kroA200	2048	2	0.046079	0.0462834	5.38082	5.41331	0.000786707	0.000771789	0.000751457	0.000771789	0.00102156	0.00089651	538.283	541.393	2.01156
kroA200	2048	4	0.0480117	0.0462834	3.117	2.70665	0.000938351	0.00154358	0.00081723	0.000771789	0.0010354	0.00089651	311.925	270.697	3.4713
kroA200	2048	8	0.0529547	0.0462834	1.4825	1.35333	0.0012488	0.00231537	0.000779491	0.000771789	0.00127977	0.00089651	148.507	135.348	7.29115
kroA200	2048	16	0.0707258	0.0462834	0.844889	0.676664	0.00097116	0.00308716	0.000846928	0.000771789	0.00161447	0.00089651	84.743	67.6741	12.7773
kroA200	2048	24	0.0699825	0.0462834	0.875612	0.451109	0.00163742	0.00353862	0.000869048	0.000771789	0.00101553	0.00089651	87.8829	45.1161	12.3208
kroA200	2048	32	0.0717036	0.0462834	0.616114	0.338332	0.00146565	0.00385894	0.000847829	0.000771789	0.00100629	0.00089651	61.9155	33.8371	17.4881
kroA200	8192	1	0.0461283	0.0459623	43.6814	43.636	1.68689e-06	0	0.000750081	0.000775721	0.00355999	0.000885432	4368.27	4363.73	0.998961
kroA200	8192	2	0.0460741	0.0459623	21.6312	21.818	0.000786864	0.000775721	0.000750497	0.000775721	0.00518066	0.000885432	2163.32	2181.86	2.01714
kroA200	8192	4	0.0515479	0.0459623	10.7839	10.909	0.00085598	0.00155144	0.000752089	0.000775721	0.00119974	0.000885432	1078.61	1090.93	4.04571
kroA200	8192	8	0.0513902	0.0459623	5.61098	5.45451	0.00085356	0.00232716	0.000752166	0.000775721	0.00108493	0.000885432	561.311	545.466	7.77418
kroA200	8192	16	0.0551663	0.0459623	2.83036	2.72725	0.000847775	0.00310288	0.000751094	0.000775721	0.0010286	0.000885432	283.252	272.733	15.4058
kroA200	8192	24	0.0670459	0.0459623	2.22642	1.81817	0.000896343	0.00355665	0.000810213	0.000775721	0.00103889	0.000885432	222.88	181.822	19.5788
kroA200	8192	32	0.0840046	0.0459623	2.27453	1.36363	0.00111591	0.0038786	0.000862842	0.000775721	0.00104533	0.000885432	227.736	136.367	19.1613
kroA200	32768	1	0.0459258	0.0460384	171.988	179.061	1.78466e-06	0	0.000743233	0.000783064	0.00142251	0.000858761	17198.9	17906.2	1.04112
kroA200	32768	2	0.0462954	0.0460384	86.8937	89.5303	0.000779264	0.000783064	0.00074009	0.000783064	0.0017854	0.000858761	8689.57	8953.09	2.06065
kroA200	32768	4	0.047181	0.0460384	45.0944	44.7651	0.000791757	0.00156613	0.000749087	0.000783064	0.00259635	0.000858761	4509.64	4476.55	3.97064
kroA200	32768	8	0.0514012	0.0460384	22.2603	22.3826	0.000827425	0.00234919	0.00074965	0.000783064	0.00405977	0.000858761	2226.24	2238.27	8.04323
kroA200	32768	16	0.0572046	0.0460384	11.2122	11.1913	0.000831815	0.00313226	0.000749275	0.000783064	0.00106722	0.000858761	1121.44	1119.14	15.9672
kroA200	32768	24	0.0670598	0.0460384	8.59712	7.46086	0.000799708	0.00359032	0.000753543	0.000783064	0.00104458	0.000858761	859.935	746.091	20.8227
kroA200	32768	32	0.0719681	0.0460384	6.43025	5.59564	0.000859358	0.00391532	0.000753685	0.000783064	0.00105935	0.000858761	643.259	559.568	27.8367
